^C:\USERS\ALEXA\DOWNLOADS\TP4\BITMAP.CPP|C:\USERS\ALEXA\DOWNLOADS\TP4\GROUPEIMAGE.CPP|C:\USERS\ALEXA\DOWNLOADS\TP4\IMAGE.CPP|C:\USERS\ALEXA\DOWNLOADS\TP4\MAIN.CPP|C:\USERS\ALEXA\DOWNLOADS\TP4\PIXEL.CPP|C:\USERS\ALEXA\DOWNLOADS\TP4\PIXELBN.CPP|C:\USERS\ALEXA\DOWNLOADS\TP4\PIXELCOULEUR.CPP|C:\USERS\ALEXA\DOWNLOADS\TP4\PIXELGRIS.CPP
C:\USERS\ALEXA\DOWNLOADS\TP4\TP4_JON\TP4_JON\DEBUG\VC140.PDB
C:\USERS\ALEXA\DOWNLOADS\TP4\TP4_JON\TP4_JON\DEBUG\VC140.IDB
C:\USERS\ALEXA\DOWNLOADS\TP4\TP4_JON\TP4_JON\DEBUG\BITMAP.OBJ
C:\USERS\ALEXA\DOWNLOADS\TP4\TP4_JON\TP4_JON\DEBUG\GROUPEIMAGE.OBJ
C:\USERS\ALEXA\DOWNLOADS\TP4\TP4_JON\TP4_JON\DEBUG\MAIN.OBJ
C:\USERS\ALEXA\DOWNLOADS\TP4\TP4_JON\TP4_JON\DEBUG\PIXEL.OBJ
C:\USERS\ALEXA\DOWNLOADS\TP4\TP4_JON\TP4_JON\DEBUG\PIXELBN.OBJ
C:\USERS\ALEXA\DOWNLOADS\TP4\TP4_JON\TP4_JON\DEBUG\PIXELCOULEUR.OBJ
C:\USERS\ALEXA\DOWNLOADS\TP4\TP4_JON\TP4_JON\DEBUG\PIXELGRIS.OBJ
^C:\USERS\ALEXA\DOWNLOADS\TP4\BITMAP.CPP
C:\USERS\ALEXA\DOWNLOADS\TP4\TP4_JON\TP4_JON\DEBUG\VC140.PDB
^C:\USERS\ALEXA\DOWNLOADS\TP4\GROUPEIMAGE.CPP
C:\USERS\ALEXA\DOWNLOADS\TP4\TP4_JON\TP4_JON\DEBUG\VC140.PDB
^C:\USERS\ALEXA\DOWNLOADS\TP4\IMAGE.CPP
C:\USERS\ALEXA\DOWNLOADS\TP4\TP4_JON\TP4_JON\DEBUG\VC140.PDB
C:\USERS\ALEXA\DOWNLOADS\TP4\TP4_JON\TP4_JON\DEBUG\VC140.IDB
C:\USERS\ALEXA\DOWNLOADS\TP4\TP4_JON\TP4_JON\DEBUG\IMAGE.OBJ
^C:\USERS\ALEXA\DOWNLOADS\TP4\MAIN.CPP
C:\USERS\ALEXA\DOWNLOADS\TP4\TP4_JON\TP4_JON\DEBUG\VC140.PDB
^C:\USERS\ALEXA\DOWNLOADS\TP4\PIXEL.CPP
C:\USERS\ALEXA\DOWNLOADS\TP4\TP4_JON\TP4_JON\DEBUG\VC140.PDB
^C:\USERS\ALEXA\DOWNLOADS\TP4\PIXELBN.CPP
C:\USERS\ALEXA\DOWNLOADS\TP4\TP4_JON\TP4_JON\DEBUG\VC140.PDB
^C:\USERS\ALEXA\DOWNLOADS\TP4\PIXELCOULEUR.CPP
C:\USERS\ALEXA\DOWNLOADS\TP4\TP4_JON\TP4_JON\DEBUG\VC140.PDB
^C:\USERS\ALEXA\DOWNLOADS\TP4\PIXELGRIS.CPP
C:\USERS\ALEXA\DOWNLOADS\TP4\TP4_JON\TP4_JON\DEBUG\VC140.PDB
